natural_rank, elo_rank
0,0
1,11
2,7
3,1
4,3
5,6
6,4
7,17
8,9
9,13
10,2
11,5
12,15
13,8
14,10
15,16
16,12
17,23
18,19
19,27
20,14
21,18
22,25
23,30
24,28
25,20
26,39
27,26
28,29
29,34
30,31
31,43
32,24
33,21
34,22
35,36
36,35
37,32
38,44
39,55
40,38
41,33
42,53
43,41
44,47
45,42
46,46
47,62
48,48
49,69
50,45
51,50
52,56
53,51
54,59
55,60
56,40
57,64
58,52
59,67
60,77
61,37
62,58
63,66
64,49
65,80
66,73
67,78
68,74
69,57
70,70
71,93
72,54
73,71
74,65
75,61
76,75
77,91
78,63
79,76
80,72
81,83
82,68
83,90
84,86
85,79
86,81
87,82
88,101
89,98
90,87
91,99
92,96
93,89
94,85
95,102
96,84
97,100
98,88
99,112
100,103
101,107
102,105
103,94
104,92
105,95
106,108
107,114
108,116
109,111
110,110
111,97
112,109
113,106
114,113
115,104
116,115
117,117
118,118
119,119
