natural_rank, elo_rank
0,1
1,0
2,5
3,6
4,10
5,3
6,21
7,9
8,23
9,22
10,4
11,11
12,7
13,25
14,15
15,2
16,40
17,24
18,28
19,32
20,26
21,19
22,27
23,12
24,31
25,34
26,16
27,14
28,37
29,63
30,8
31,35
32,41
33,44
34,50
35,38
36,30
37,47
38,17
39,20
40,29
41,36
42,33
43,66
44,18
45,13
46,51
47,48
48,45
49,57
50,74
51,76
52,39
53,52
54,71
55,68
56,42
57,61
58,62
59,86
60,49
61,78
62,55
63,72
64,73
65,54
66,53
67,65
68,80
69,98
70,70
71,89
72,94
73,77
74,46
75,64
76,75
77,43
78,56
79,82
80,92
81,83
82,81
83,58
84,69
85,103
86,59
87,84
88,67
89,79
90,100
91,109
92,90
93,85
94,104
95,88
96,87
97,113
98,60
99,95
100,97
101,112
102,93
103,101
104,102
105,96
106,91
107,99
108,106
109,117
110,115
111,108
112,114
113,105
114,107
115,111
116,110
117,119
118,116
119,118
