{
  "type": "object",
  "properties": {
    "name_council": {
      "type": "string",
      "minLength": 1
    },
    "name_club": {
      "type": "string",
      "minLength": 1
    },
    "name_exec": {
      "type": "string",
      "minLength": 1
    },
    "name_coordi": {
      "type": "string",
      "minLength": 1
    },
    "roll_exec": {
      "type": "string",
      "minLength": 1
    },
    "roll_coordi": {
      "type": "string",
      "minLength": 1
    },
    "contact_coordi": {
      "type": "string",
      "minLength": 1
    },
    "contact_exec": {
      "type": "string",
      "minLength": 1
    },
    "remarks":{
      "type": "string"
    },
    "amount":{
      "type" : "number"
    },
    "details":{
      "type" : "string"
    }

  }, "required": ["amount"]
}
